{
  "silenceDetection": {
    "streamDuration": 10,
    "silenceDuration": 3,
    "level": -50
  },
  "job": "Streaming Audio Automation Solution",
  "metrics": "datadog-metrics",
  "source": "csv-source",
  "sourceFile": "input/radioList.csv",
  "interceptor": "src/streaming-audio-interceptor",
  "customer": "bespoken",
  "virtualDevices": {
    "alexa-f8418a59-8315-4faf-aa74-e7ed790dfe77": ["bespoken.test+us account"]
  },
  "limit": 3
}