utterance,streamURL
play W K S T,http://c3icyelb.prod.playlists.ihrhls.com/2021_icy?at=1&fb_broadcast=false&deviceid=amzn1.account.AH55XBKJ77AJNKGIXV6EZLKKXFVA&callLetters=WKST-FM&streamid=2021&clienttype=amazon&iheartradioversion=1.0&osversion=1.0&devicename=Indigo&terminalid=304&init_id=8169&profileid=1318302555
play K T C Z,http://stream.revma.ihrhls.com/zc1221
play W Z T U,http://stream.revma.ihrhls.com/zc577
play kiss country 99.9, https://playerservices.streamtheworld.com/api/livestream-redirect/WKISFMAAC.aac?DIST=CBS&TGT=radiocomAlexa&SRS=CBS
play kool 97.3,https://live.wostreaming.net/direct/alphacorporate-keagfmaac-imc4?source=radiocom?Source=radiocomAlexa
play k m x s 103.1,https://live.wostreaming.net/direct/alphacorporate-kmxsfmaac-imc4?source=radiocom?Source=radiocomAlexa
play la grande 107.5 f m,https://playerservices.streamtheworld.com/api/livestream-redirect/KMVKFMAAC.aac?DIST=CBS&TGT=radiocomAlexa&SRS=CBS
play el zol 107.9,https://playerservices.streamtheworld.com/api/livestream-redirect/WLZLFMAAC.aac?DIST=CBS&TGT=radiocomAlexa&SRS=CBS
play koka the heart of gospel,https://live.wostreaming.net/direct/alphacorporate-kokaamaac-ibc4?source=radiocom?Source=radiocomAlexa
play K U W D,https://wprhqstream4.uwyo.edu/wpr128.mp3